-------------------------------------------------------------------------------
Test set: com.flights.entities.AppTest
-------------------------------------------------------------------------------
Tests run: 1, Failures: 0, Errors: 0, Skipped: 0, Time elapsed: 0.066 s - in com.flights.entities.AppTest
